Starting at 13:19 on the 23.6.2010.
m_wdm = 100000000
no.bins = 10
invm omega_m ns As Gamma
NaN 0.0001 0.0001 1000 0.0001
fisher matrices:
 
-   h a l o :
0.0008
1.0539e+08 -5.7099e+07 -3.0918e+07 -108.81 -2.3601e+08
-5.7099e+07 4.8118e+07 2.4106e+07 94.99 2.0006e+08
-3.0918e+07 2.4106e+07 1.2448e+07 48.192 1.0201e+08
-108.81 94.99 48.192 0.00019171 402.87
-2.3601e+08 2.0006e+08 1.0201e+08 402.87 8.4834e+08
 
