- Starting at 15:59 on the 24.5.2010.
- m_wdm = 100000000
- no.bins = 10
- invm omega_m ns As Gamma
NaN 1e-05 1e-05 10 1e-05
- fisher matrices:
 
-   h a l o :
0.0005
6.1506e+07 -4.1605e+07 -2.284e+07 -79.361 -1.7273e+08
-4.1605e+07 4.8121e+07 2.4106e+07 95.13 2.0023e+08
-2.284e+07 2.4106e+07 1.2447e+07 48.261 1.021e+08
-79.361 95.13 48.261 0.00019222 403.73
-1.7273e+08 2.0023e+08 1.021e+08 403.73 8.4965e+08
 
0.0005
2.5886e+06 -8.5645e+06 -5.4919e+06 -18.049 -4.013e+07
-8.5645e+06 5.0238e+07 2.6468e+07 104.52 2.2095e+08
-5.4919e+06 2.6468e+07 1.5019e+07 55.822 1.1999e+08
-18.049 104.52 55.822 0.00021982 465.17
-4.013e+07 2.2095e+08 1.1999e+08 465.17 9.8853e+08
 
-   h a l o :
0.0003
4.9801e+07 -3.3887e+07 -1.9108e+07 -64.888 -1.4219e+08
-3.3887e+07 4.8121e+07 2.4106e+07 95.13 2.0023e+08
-1.9108e+07 2.4106e+07 1.2447e+07 48.261 1.021e+08
-64.888 95.13 48.261 0.00019222 403.73
-1.4219e+08 2.0023e+08 1.021e+08 403.73 8.4965e+08
 
0.0003
5.6736e+05 -4.0084e+06 -2.5705e+06 -8.4473 -1.8782e+07
-4.0084e+06 5.0238e+07 2.6468e+07 104.52 2.2095e+08
-2.5705e+06 2.6468e+07 1.5019e+07 55.822 1.1999e+08
-8.4473 104.52 55.822 0.00021982 465.17
-1.8782e+07 2.2095e+08 1.1999e+08 465.17 9.8853e+08
 
-   h a l o :
0.0011
1.933e+08 -7.6999e+07 -4.1394e+07 -148.59 -3.2027e+08
-7.6999e+07 4.8121e+07 2.4106e+07 95.13 2.0023e+08
-4.1394e+07 2.4106e+07 1.2447e+07 48.261 1.021e+08
-148.59 95.13 48.261 0.00019222 403.73
-3.2027e+08 2.0023e+08 1.021e+08 403.73 8.4965e+08
 
0.0011
2.6796e+07 -2.7597e+07 -1.7691e+07 -58.169 -1.2931e+08
-2.7597e+07 5.0238e+07 2.6468e+07 104.52 2.2095e+08
-1.7691e+07 2.6468e+07 1.5019e+07 55.822 1.1999e+08
-58.169 104.52 55.822 0.00021982 465.17
-1.2931e+08 2.2095e+08 1.1999e+08 465.17 9.8853e+08
 
