- Starting at 13:58 on the 21 of April 2010.
- m_wdm = 1000000
- no.bins = 10
- no.sigma = 1
- invm
0.00042
- step & error
 
0.00042 0.00085517
0.00085517 0.00029856
0.00029856 0.0014167
0.0014167 0.00014194
0.00014194 0.0042393
0.0042393 3.3385e-05
